<?xml version="1.0" encoding="UTF-8" standalone="no"?>
<!-- Created with Inkscape (http://www.inkscape.org/) -->

<svg
   xmlns:dc="http://purl.org/dc/elements/1.1/"
   xmlns:cc="http://creativecommons.org/ns#"
   xmlns:rdf="http://www.w3.org/1999/02/22-rdf-syntax-ns#"
   xmlns:svg="http://www.w3.org/2000/svg"
   xmlns="http://www.w3.org/2000/svg"
   xmlns:sodipodi="http://sodipodi.sourceforge.net/DTD/sodipodi-0.dtd"
   xmlns:inkscape="http://www.inkscape.org/namespaces/inkscape"
   width="1000"
   height="1000"
   id="svg2"
   version="1.1"
   inkscape:version="0.48.4 r9939"
   sodipodi:docname="icon.svg"
   inkscape:export-filename="/home/nesachirou/dev/chatwork-notify/icon_128.png"
   inkscape:export-xdpi="11.52"
   inkscape:export-ydpi="11.52">
  <defs
     id="defs4" />
  <sodipodi:namedview
     id="base"
     pagecolor="#000000"
     bordercolor="#666666"
     borderopacity="1.0"
     inkscape:pageopacity="0"
     inkscape:pageshadow="2"
     inkscape:zoom="0.35"
     inkscape:cx="734.97798"
     inkscape:cy="318.92674"
     inkscape:document-units="px"
     inkscape:current-layer="layer1"
     showgrid="false"
     objecttolerance="10000"
     guidetolerance="10000"
     inkscape:window-width="1215"
     inkscape:window-height="776"
     inkscape:window-x="65"
     inkscape:window-y="24"
     inkscape:window-maximized="1" />
  <metadata
     id="metadata7">
    <rdf:RDF>
      <cc:Work
         rdf:about="">
        <dc:format>image/svg+xml</dc:format>
        <dc:type
           rdf:resource="http://purl.org/dc/dcmitype/StillImage" />
        <dc:title></dc:title>
      </cc:Work>
    </rdf:RDF>
  </metadata>
  <g
     inkscape:label="レイヤー 1"
     inkscape:groupmode="layer"
     id="layer1"
     transform="translate(0,-52.362183)">
    <path
       style="fill:#00ff00;fill-opacity:1;stroke:#ffffff;stroke-width:33.60050583;stroke-miterlimit:4;stroke-opacity:1;stroke-dasharray:none"
       d="m 500.01748,69.162431 c -266.86798,0 -483.217241,216.314259 -483.217241,483.182259 0,10.83882 0.34739,21.60946 1.050016,32.27048 l -1.050016,0 0,450.94673 467.677011,0 0,-0.245 c 5.15493,0.1627 10.34578,0.245 15.54023,0.245 266.86799,0 483.18228,-216.34923 483.18228,-483.21721 0,-266.86799 -216.31429,-483.182259 -483.18228,-483.182259 z"
       id="path2985"
       inkscape:connector-curvature="0" />
    <path
       sodipodi:type="arc"
       style="fill:#ffffff;fill-opacity:1;stroke:none"
       id="path3758"
       sodipodi:cx="534.28571"
       sodipodi:cy="534.28571"
       sodipodi:rx="357.14285"
       sodipodi:ry="357.14285"
       d="m 891.42856,534.28571 a 357.14285,357.14285 0 1 1 -714.28571,0 357.14285,357.14285 0 1 1 714.28571,0 z"
       transform="translate(-34.285706,18.076477)" />
    <path
       style="fill:#ffffff;fill-opacity:1;stroke:none"
       d="m 500,857.457 -466.571429,0 C 159.14285,732.21891 140,729.52381 142.85714,500 z"
       id="path3760"
       inkscape:connector-curvature="0"
       transform="translate(0,52.362183)"
       sodipodi:nodetypes="cccc" />
    <path
       sodipodi:type="arc"
       style="fill:#ffffff;stroke:#ff002c;stroke-width:60;stroke-miterlimit:4;stroke-opacity:1;stroke-dasharray:none;fill-opacity:0.50196081"
       id="path3762"
       sodipodi:cx="820.24384"
       sodipodi:cy="874.74109"
       sodipodi:rx="258.59906"
       sodipodi:ry="258.59906"
       d="m 1078.8429,874.74109 a 258.59906,258.59906 0 1 1 -517.19812,0 258.59906,258.59906 0 1 1 517.19812,0 z"
       transform="translate(-108.8429,-110.97797)" />
    <flowRoot
       xml:space="preserve"
       id="flowRoot3764"
       style="font-size:480px;font-style:normal;font-variant:normal;font-weight:500;font-stretch:normal;line-height:125%;letter-spacing:0px;word-spacing:0px;fill:#ff002c;fill-opacity:1;stroke:none;font-family:Times New Roman;-inkscape-font-specification:Times New Roman"
       transform="translate(292.07281,15.646529)"><flowRegion
         id="flowRegion3766"><rect
           id="rect3768"
           width="553.5636"
           height="638.41638"
           x="339.41125"
           y="442.39578"
           style="font-size:480px;font-style:normal;font-variant:normal;font-weight:500;font-stretch:normal;fill:#ff002c;fill-opacity:1;font-family:Times New Roman;-inkscape-font-specification:Times New Roman" /></flowRegion><flowPara
         id="flowPara3770"
         style="font-size:480px">!</flowPara></flowRoot>  </g>
</svg>
